RISCV_Multicycle/ModelSim/TestRam/wave.vcd
$date
	Wed Jun  7 23:44:44 2023
$end
$version
	ModelSim Version 2020.1
$end
$timescale
	1ps
$end
$scope module tb_ram $end
$var reg 1 ! clk $end
$var reg 1 " rst $end
$var reg 1 # valid $end
$var reg 1 $ read $end
$var reg 1 % write $end
$var reg 4 & byteena [3:0] $end
$var reg 32 ' addr [31:0] $end
$var reg 32 ( wdata [31:0] $end
$var reg 32 ) rdata [31:0] $end
$scope module dut $end
$var integer 32 * state $end
$var reg 32 + rdata_ram [31:0] $end
$upscope $end
$upscope $end
$enddefinitions $end
#0
b0 !
b1 "
bx #
b0 $
b0 %
b0 &
b0 '
b0 (
bx )
bx *
b0 +
b0 !
b1 "
b0 $
b0 %
b0 &
b0 '
b0 (
b0 +
#10000
b1 !
bx0x *
b0 )
b0 #
bx +
#20000
b0 !
#30000
b1 !
b0 "
#40000
b0 !
#50000
b1 !
b1111 &
b1 %
b10010000101010011010100100100 (
#60000
b0 !
#70000
b1 !
bx *
#80000
b0 !
#90000
b1 !
bx0x *
b1 #
b100 '
b11000000100010010101111010000001 (
b10010000101010011010100100100 +
#100000
b0 !
#110000
b1 !
bx *
b0 #
#120000
b0 !
#130000
b1 !
bx0x *
b1 #
b1000 '
b10000100100001001101011000001001 (
b11000000100010010101111010000001 +
#140000
b0 !
#150000
b1 !
bx *
b0 #
#160000
b0 !
#170000
b1 !
bx0x *
b1 #
b1100 '
b10110001111100000101011001100011 (
b10000100100001001101011000001001 +
#180000
b0 !
#190000
b1 !
bx *
b0 #
#200000
b0 !
#210000
b1 !
bx0x *
b1 #
b10000 '
b110101110010111101100001101 (
b10110001111100000101011001100011 +
#220000
b0 !
#230000
b1 !
bx *
b0 #
#240000
b0 !
#250000
b1 !
bx0x *
b1 #
b10100 '
b1000110110111111001100110001101 (
b110101110010111101100001101 +
#260000
b0 !
#270000
b1 !
bx *
b0 #
#280000
b0 !
#290000
b1 !
bx0x *
b1 #
b11000 '
b10110010110000101000010001100101 (
b1000110110111111001100110001101 +
#300000
b0 !
#310000
b1 !
bx *
b0 #
#320000
b0 !
#330000
b1 !
bx0x *
b1 #
b11100 '
b10001001001101110101001000010010 (
b10110010110000101000010001100101 +
#340000
b0 !
#350000
b1 !
bx *
b0 #
#360000
b0 !
#370000
b1 !
bx0x *
b1 #
b100000 '
b111100111110001100000001 (
b10001001001101110101001000010010 +
#380000
b0 !
#390000
b1 !
bx *
b0 #
#400000
b0 !
#410000
b1 !
bx0x *
b1 #
b100100 '
b110110101111100110100001101 (
b111100111110001100000001 +
#420000
b0 !
#430000
b1 !
bx *
b0 #
#440000
b0 !
#450000
b1 !
bx0x *
b1 #
b0 %
b110110101111100110100001101 +
#460000
b0 !
#470000
b1 !
b0 '
b1 $
b0 #
#480000
b0 !
#490000
b1 !
bx *
#500000
b0 !
#510000
b1 !
b10010000101010011010100100100 +
#520000
b0 !
#530000
b1 !
bx0x *
b10010000101010011010100100100 )
b1 #
#535000
b100 '
#540000
b0 !
#550000
b1 !
bx *
b0 #
#560000
b0 !
#570000
b1 !
b11000000100010010101111010000001 +
#580000
b0 !
#590000
b1 !
bx0x *
b11000000100010010101111010000001 )
b1 #
#595000
b1000 '
#600000
b0 !
#610000
b1 !
bx *
b0 #
#620000
b0 !
#630000
b1 !
b10000100100001001101011000001001 +
#640000
b0 !
#650000
b1 !
bx0x *
b10000100100001001101011000001001 )
b1 #
#660000
b0 !
#670000
b1 !
bx *
b0 #
#680000
b0 !
#690000
b1 !
#700000
b0 !
#710000
b1 !
bx0x *
b1 #
#720000
b0 !
#730000
b1 !
bx *
b0 #
#740000
b0 !
#750000
b1 !
#760000
b0 !
#770000
b1 !
bx0x *
b1 #
#780000
b0 !
#790000
b1 !
bx *
b0 #
#800000
b0 !
#810000
b1 !
#820000
b0 !
#830000
b1 !
bx0x *
b1 #
#840000
b0 !
#850000
b1 !
